{
	"info": {
		"_postman_id": "2dc89778-92d3-485e-a668-ada1a0298a30",
		"name": "API training",
		"schema": "https://schema.getpostman.com/json/collection/v2.1.0/collection.json",
		"_exporter_id": "30996354"
	},
	"item": [
		{
			"name": "New Request",
			"request": {
				"auth": {
					"type": "bearer",
					"bearer": [
						{
							"key": "token",
							"value": "glpat-XisaC5P-jGZgV1EbnJTL",
							"type": "string"
						}
					]
				},
				"method": "GET",
				"header": [],
				"url": {
					"raw": "https://gitlab.com/api/v4/projects?owned=true",
					"protocol": "https",
					"host": [
						"gitlab",
						"com"
					],
					"path": [
						"api",
						"v4",
						"projects"
					],
					"query": [
						{
							"key": "owned",
							"value": "true"
						}
					]
				}
			},
			"response": []
		},
		{
			"name": "New Request",
			"request": {
				"method": "POST",
				"header": [],
				"body": {
					"mode": "raw",
					"raw": "{\r\n        \"name\": \"new_project\", \"description\": \"New Project\", \"path\": \"new_project\", \"visibility\": \"public\", \"initialize_with_readme\": \"true\"}",
					"options": {
						"raw": {
							"language": "json"
						}
					}
				},
				"url": {
					"raw": "https://gitlab.com/api/v4/projects/",
					"protocol": "https",
					"host": [
						"gitlab",
						"com"
					],
					"path": [
						"api",
						"v4",
						"projects",
						""
					]
				}
			},
			"response": []
		},
		{
			"name": "New Request",
			"request": {
				"method": "POST",
				"header": [],
				"body": {
					"mode": "raw",
					"raw": "",
					"options": {
						"raw": {
							"language": "json"
						}
					}
				},
				"url": {
					"raw": "https://gitlab.com/api/v4/projects/51952934/repository/branches?branch=newbranch&ref=main",
					"protocol": "https",
					"host": [
						"gitlab",
						"com"
					],
					"path": [
						"api",
						"v4",
						"projects",
						"51952934",
						"repository",
						"branches"
					],
					"query": [
						{
							"key": "branch",
							"value": "newbranch"
						},
						{
							"key": "ref",
							"value": "main"
						}
					]
				}
			},
			"response": []
		},
		{
			"name": "New Request",
			"request": {
				"method": "POST",
				"header": [],
				"url": {
					"raw": "https://gitlab.com/api/v4/projects/51952934/merge_requests/?source_branch=newbranch&target_branch=main&title=newmerge",
					"protocol": "https",
					"host": [
						"gitlab",
						"com"
					],
					"path": [
						"api",
						"v4",
						"projects",
						"51952934",
						"merge_requests",
						""
					],
					"query": [
						{
							"key": "source_branch",
							"value": "newbranch"
						},
						{
							"key": "target_branch",
							"value": "main"
						},
						{
							"key": "title",
							"value": "newmerge"
						}
					]
				}
			},
			"response": []
		}
	],
	"auth": {
		"type": "bearer",
		"bearer": [
			{
				"key": "token",
				"value": "glpat-XisaC5P-jGZgV1EbnJTL",
				"type": "string"
			}
		]
	},
	"event": [
		{
			"listen": "prerequest",
			"script": {
				"type": "text/javascript",
				"exec": [
					""
				]
			}
		},
		{
			"listen": "test",
			"script": {
				"type": "text/javascript",
				"exec": [
					""
				]
			}
		}
	]
}